1517360227.883346	-	-	-	-	-	-	-	-	-	HTTP::EIoT	GET, /	-	-	-	-	-	bro	Notice::ACTION_LOG	3600.000000	F	-	-	-	-	-
1517360227.893005	-	-	-	-	-	-	-	-	-	HTTP::EIoT	401	-	-	-	-	-	bro	Notice::ACTION_LOG	3600.000000	F	-	-	-	-	-
1517360227.905332	-	-	-	-	-	-	-	-	-	HTTP::EIoT	GET, /	-	-	-	-	-	bro	Notice::ACTION_LOG	3600.000000	F	-	-	-	-	-
1517360227.923279	-	-	-	-	-	-	-	-	-	HTTP::EIoT	200	-	-	-	-	-	bro	Notice::ACTION_LOG	3600.000000	F	-	-	-	-	-
