1517360404.972632	-	-	-	-	-	-	-	-	-	HTTP::EIoT	GET, /	-	-	-	-	-	bro	Notice::ACTION_LOG	3600.000000	F	-	-	-	-	-
1517360404.982282	-	-	-	-	-	-	-	-	-	HTTP::EIoT	200	-	-	-	-	-	bro	Notice::ACTION_LOG	3600.000000	F	-	-	-	-	-
1517360405.002950	-	-	-	-	-	-	-	-	-	HTTP::EIoT	POST, /level/3/exec/	-	-	-	-	-	bro	Notice::ACTION_LOG	3600.000000	F	-	-	-	-	-
1517360405.023252	-	-	-	-	-	-	-	-	-	HTTP::EIoT	POST, /level/6/exec/	-	-	-	-	-	bro	Notice::ACTION_LOG	3600.000000	F	-	-	-	-	-
1517360406.875627	-	-	-	-	-	-	-	-	-	HTTP::EIoT	GET, /	-	-	-	-	-	bro	Notice::ACTION_LOG	3600.000000	F	-	-	-	-	-
1517360406.885140	-	-	-	-	-	-	-	-	-	HTTP::EIoT	401	-	-	-	-	-	bro	Notice::ACTION_LOG	3600.000000	F	-	-	-	-	-
1517360406.895979	-	-	-	-	-	-	-	-	-	HTTP::EIoT	GET, /	-	-	-	-	-	bro	Notice::ACTION_LOG	3600.000000	F	-	-	-	-	-
1517360406.905374	-	-	-	-	-	-	-	-	-	HTTP::EIoT	200	-	-	-	-	-	bro	Notice::ACTION_LOG	3600.000000	F	-	-	-	-	-
1517360406.916065	-	-	-	-	-	-	-	-	-	HTTP::EIoT	GET, /	-	-	-	-	-	bro	Notice::ACTION_LOG	3600.000000	F	-	-	-	-	-
1517360406.945735	-	-	-	-	-	-	-	-	-	HTTP::EIoT	401	-	-	-	-	-	bro	Notice::ACTION_LOG	3600.000000	F	-	-	-	-	-
1517360406.956569	-	-	-	-	-	-	-	-	-	HTTP::EIoT	GET, /	-	-	-	-	-	bro	Notice::ACTION_LOG	3600.000000	F	-	-	-	-	-
1517360406.965927	-	-	-	-	-	-	-	-	-	HTTP::EIoT	200	-	-	-	-	-	bro	Notice::ACTION_LOG	3600.000000	F	-	-	-	-	-
1517360406.986791	-	-	-	-	-	-	-	-	-	HTTP::EIoT	POST, /level/1/exec/	-	-	-	-	-	bro	Notice::ACTION_LOG	3600.000000	F	-	-	-	-	-
1517360407.006790	-	-	-	-	-	-	-	-	-	HTTP::EIoT	POST, /level/3/exec/	-	-	-	-	-	bro	Notice::ACTION_LOG	3600.000000	F	-	-	-	-	-
1517360407.027044	-	-	-	-	-	-	-	-	-	HTTP::EIoT	POST, /level/6/exec/	-	-	-	-	-	bro	Notice::ACTION_LOG	3600.000000	F	-	-	-	-	-
1517360408.869152	-	-	-	-	-	-	-	-	-	HTTP::EIoT	GET, /	-	-	-	-	-	bro	Notice::ACTION_LOG	3600.000000	F	-	-	-	-	-
