1517369774.782570	-	-	-	-	-	-	-	-	-	HTTP::EIoT	GET, /	-	-	-	-	-	bro	Notice::ACTION_LOG	3600.000000	F	-	-	-	-	-
1517369774.852539	-	-	-	-	-	-	-	-	-	HTTP::EIoT	401	-	-	-	-	-	bro	Notice::ACTION_LOG	3600.000000	F	-	-	-	-	-
1517369774.863048	-	-	-	-	-	-	-	-	-	HTTP::EIoT	GET, /	-	-	-	-	-	bro	Notice::ACTION_LOG	3600.000000	F	-	-	-	-	-
1517369774.872721	-	-	-	-	-	-	-	-	-	HTTP::EIoT	200	-	-	-	-	-	bro	Notice::ACTION_LOG	3600.000000	F	-	-	-	-	-
1517369774.903393	-	-	-	-	-	-	-	-	-	HTTP::EIoT	GET, /	-	-	-	-	-	bro	Notice::ACTION_LOG	3600.000000	F	-	-	-	-	-
1517369774.913013	-	-	-	-	-	-	-	-	-	HTTP::EIoT	401	-	-	-	-	-	bro	Notice::ACTION_LOG	3600.000000	F	-	-	-	-	-
1517369774.923736	-	-	-	-	-	-	-	-	-	HTTP::EIoT	GET, /	-	-	-	-	-	bro	Notice::ACTION_LOG	3600.000000	F	-	-	-	-	-
1517369774.933229	-	-	-	-	-	-	-	-	-	HTTP::EIoT	200	-	-	-	-	-	bro	Notice::ACTION_LOG	3600.000000	F	-	-	-	-	-
1517369774.964190	-	-	-	-	-	-	-	-	-	HTTP::EIoT	GET, /	-	-	-	-	-	bro	Notice::ACTION_LOG	3600.000000	F	-	-	-	-	-
1517369774.973613	-	-	-	-	-	-	-	-	-	HTTP::EIoT	401	-	-	-	-	-	bro	Notice::ACTION_LOG	3600.000000	F	-	-	-	-	-
1517369774.984156	-	-	-	-	-	-	-	-	-	HTTP::EIoT	GET, /	-	-	-	-	-	bro	Notice::ACTION_LOG	3600.000000	F	-	-	-	-	-
1517369774.993777	-	-	-	-	-	-	-	-	-	HTTP::EIoT	200	-	-	-	-	-	bro	Notice::ACTION_LOG	3600.000000	F	-	-	-	-	-
1517369775.014530	-	-	-	-	-	-	-	-	-	HTTP::EIoT	GET, /	-	-	-	-	-	bro	Notice::ACTION_LOG	3600.000000	F	-	-	-	-	-
1517369775.024064	-	-	-	-	-	-	-	-	-	HTTP::EIoT	401	-	-	-	-	-	bro	Notice::ACTION_LOG	3600.000000	F	-	-	-	-	-
1517369775.034593	-	-	-	-	-	-	-	-	-	HTTP::EIoT	GET, /	-	-	-	-	-	bro	Notice::ACTION_LOG	3600.000000	F	-	-	-	-	-
1517369775.044276	-	-	-	-	-	-	-	-	-	HTTP::EIoT	200	-	-	-	-	-	bro	Notice::ACTION_LOG	3600.000000	F	-	-	-	-	-
1517369775.074887	-	-	-	-	-	-	-	-	-	HTTP::EIoT	POST, /level/1/exec/	-	-	-	-	-	bro	Notice::ACTION_LOG	3600.000000	F	-	-	-	-	-
1517369776.776867	-	-	-	-	-	-	-	-	-	HTTP::EIoT	POST, /level/2/exec/	-	-	-	-	-	bro	Notice::ACTION_LOG	3600.000000	F	-	-	-	-	-
1517369776.908074	-	-	-	-	-	-	-	-	-	HTTP::EIoT	GET, /	-	-	-	-	-	bro	Notice::ACTION_LOG	3600.000000	F	-	-	-	-	-
1517369776.937603	-	-	-	-	-	-	-	-	-	HTTP::EIoT	401	-	-	-	-	-	bro	Notice::ACTION_LOG	3600.000000	F	-	-	-	-	-
1517369776.948144	-	-	-	-	-	-	-	-	-	HTTP::EIoT	GET, /	-	-	-	-	-	bro	Notice::ACTION_LOG	3600.000000	F	-	-	-	-	-
1517369776.957754	-	-	-	-	-	-	-	-	-	HTTP::EIoT	200	-	-	-	-	-	bro	Notice::ACTION_LOG	3600.000000	F	-	-	-	-	-
1517369776.978332	-	-	-	-	-	-	-	-	-	HTTP::EIoT	GET, /	-	-	-	-	-	bro	Notice::ACTION_LOG	3600.000000	F	-	-	-	-	-
1517369776.998103	-	-	-	-	-	-	-	-	-	HTTP::EIoT	401	-	-	-	-	-	bro	Notice::ACTION_LOG	3600.000000	F	-	-	-	-	-
1517369777.008969	-	-	-	-	-	-	-	-	-	HTTP::EIoT	GET, /	-	-	-	-	-	bro	Notice::ACTION_LOG	3600.000000	F	-	-	-	-	-
1517369777.018301	-	-	-	-	-	-	-	-	-	HTTP::EIoT	200	-	-	-	-	-	bro	Notice::ACTION_LOG	3600.000000	F	-	-	-	-	-
1517369777.038822	-	-	-	-	-	-	-	-	-	HTTP::EIoT	GET, /	-	-	-	-	-	bro	Notice::ACTION_LOG	3600.000000	F	-	-	-	-	-
1517369777.048607	-	-	-	-	-	-	-	-	-	HTTP::EIoT	401	-	-	-	-	-	bro	Notice::ACTION_LOG	3600.000000	F	-	-	-	-	-
1517369777.060431	-	-	-	-	-	-	-	-	-	HTTP::EIoT	GET, /	-	-	-	-	-	bro	Notice::ACTION_LOG	3600.000000	F	-	-	-	-	-
1517369777.069652	-	-	-	-	-	-	-	-	-	HTTP::EIoT	200	-	-	-	-	-	bro	Notice::ACTION_LOG	3600.000000	F	-	-	-	-	-
1517369777.091994	-	-	-	-	-	-	-	-	-	HTTP::EIoT	GET, /	-	-	-	-	-	bro	Notice::ACTION_LOG	3600.000000	F	-	-	-	-	-
1517369778.760962	-	-	-	-	-	-	-	-	-	HTTP::EIoT	401	-	-	-	-	-	bro	Notice::ACTION_LOG	3600.000000	F	-	-	-	-	-
1517369778.771660	-	-	-	-	-	-	-	-	-	HTTP::EIoT	GET, /	-	-	-	-	-	bro	Notice::ACTION_LOG	3600.000000	F	-	-	-	-	-
1517369778.781146	-	-	-	-	-	-	-	-	-	HTTP::EIoT	200	-	-	-	-	-	bro	Notice::ACTION_LOG	3600.000000	F	-	-	-	-	-
1517369778.801746	-	-	-	-	-	-	-	-	-	HTTP::EIoT	GET, /	-	-	-	-	-	bro	Notice::ACTION_LOG	3600.000000	F	-	-	-	-	-
1517369778.871826	-	-	-	-	-	-	-	-	-	HTTP::EIoT	401	-	-	-	-	-	bro	Notice::ACTION_LOG	3600.000000	F	-	-	-	-	-
1517369778.882211	-	-	-	-	-	-	-	-	-	HTTP::EIoT	GET, /	-	-	-	-	-	bro	Notice::ACTION_LOG	3600.000000	F	-	-	-	-	-
1517369778.892078	-	-	-	-	-	-	-	-	-	HTTP::EIoT	200	-	-	-	-	-	bro	Notice::ACTION_LOG	3600.000000	F	-	-	-	-	-
1517369778.912675	-	-	-	-	-	-	-	-	-	HTTP::EIoT	GET, /	-	-	-	-	-	bro	Notice::ACTION_LOG	3600.000000	F	-	-	-	-	-
1517369778.962619	-	-	-	-	-	-	-	-	-	HTTP::EIoT	401	-	-	-	-	-	bro	Notice::ACTION_LOG	3600.000000	F	-	-	-	-	-
