1517369972.566509	-	-	-	-	-	-	-	-	-	HTTP::EIoT	GET, /	-	-	-	-	-	bro	Notice::ACTION_LOG	3600.000000	F	-	-	-	-	-
1517369972.576063	-	-	-	-	-	-	-	-	-	HTTP::EIoT	200	-	-	-	-	-	bro	Notice::ACTION_LOG	3600.000000	F	-	-	-	-	-
1517369972.596544	-	-	-	-	-	-	-	-	-	HTTP::EIoT	GET, /	-	-	-	-	-	bro	Notice::ACTION_LOG	3600.000000	F	-	-	-	-	-
1517369972.606384	-	-	-	-	-	-	-	-	-	HTTP::EIoT	401	-	-	-	-	-	bro	Notice::ACTION_LOG	3600.000000	F	-	-	-	-	-
1517369972.617385	-	-	-	-	-	-	-	-	-	HTTP::EIoT	GET, /	-	-	-	-	-	bro	Notice::ACTION_LOG	3600.000000	F	-	-	-	-	-
1517369972.626642	-	-	-	-	-	-	-	-	-	HTTP::EIoT	200	-	-	-	-	-	bro	Notice::ACTION_LOG	3600.000000	F	-	-	-	-	-
1517369972.647332	-	-	-	-	-	-	-	-	-	HTTP::EIoT	GET, /	-	-	-	-	-	bro	Notice::ACTION_LOG	3600.000000	F	-	-	-	-	-
1517369972.656909	-	-	-	-	-	-	-	-	-	HTTP::EIoT	401	-	-	-	-	-	bro	Notice::ACTION_LOG	3600.000000	F	-	-	-	-	-
1517369972.667424	-	-	-	-	-	-	-	-	-	HTTP::EIoT	GET, /	-	-	-	-	-	bro	Notice::ACTION_LOG	3600.000000	F	-	-	-	-	-
1517369987.657043	-	-	-	-	-	-	-	-	-	HTTP::EIoT	200	-	-	-	-	-	bro	Notice::ACTION_LOG	3600.000000	F	-	-	-	-	-
1517369987.677733	-	-	-	-	-	-	-	-	-	HTTP::EIoT	GET, /	-	-	-	-	-	bro	Notice::ACTION_LOG	3600.000000	F	-	-	-	-	-
1517369987.687376	-	-	-	-	-	-	-	-	-	HTTP::EIoT	401	-	-	-	-	-	bro	Notice::ACTION_LOG	3600.000000	F	-	-	-	-	-
1517369987.699014	-	-	-	-	-	-	-	-	-	HTTP::EIoT	GET, /	-	-	-	-	-	bro	Notice::ACTION_LOG	3600.000000	F	-	-	-	-	-
1517369987.708424	-	-	-	-	-	-	-	-	-	HTTP::EIoT	200	-	-	-	-	-	bro	Notice::ACTION_LOG	3600.000000	F	-	-	-	-	-
1517369987.729195	-	-	-	-	-	-	-	-	-	HTTP::EIoT	GET, /	-	-	-	-	-	bro	Notice::ACTION_LOG	3600.000000	F	-	-	-	-	-
1517369987.738714	-	-	-	-	-	-	-	-	-	HTTP::EIoT	401	-	-	-	-	-	bro	Notice::ACTION_LOG	3600.000000	F	-	-	-	-	-
1517369987.749364	-	-	-	-	-	-	-	-	-	HTTP::EIoT	GET, /	-	-	-	-	-	bro	Notice::ACTION_LOG	3600.000000	F	-	-	-	-	-
1517369987.758873	-	-	-	-	-	-	-	-	-	HTTP::EIoT	200	-	-	-	-	-	bro	Notice::ACTION_LOG	3600.000000	F	-	-	-	-	-
1517369987.789573	-	-	-	-	-	-	-	-	-	HTTP::EIoT	GET, /	-	-	-	-	-	bro	Notice::ACTION_LOG	3600.000000	F	-	-	-	-	-
1517370002.759191	-	-	-	-	-	-	-	-	-	HTTP::EIoT	401	-	-	-	-	-	bro	Notice::ACTION_LOG	3600.000000	F	-	-	-	-	-
1517370002.769760	-	-	-	-	-	-	-	-	-	HTTP::EIoT	GET, /	-	-	-	-	-	bro	Notice::ACTION_LOG	3600.000000	F	-	-	-	-	-
1517370002.779367	-	-	-	-	-	-	-	-	-	HTTP::EIoT	200	-	-	-	-	-	bro	Notice::ACTION_LOG	3600.000000	F	-	-	-	-	-
1517370002.800204	-	-	-	-	-	-	-	-	-	HTTP::EIoT	GET, /	-	-	-	-	-	bro	Notice::ACTION_LOG	3600.000000	F	-	-	-	-	-
1517370002.809644	-	-	-	-	-	-	-	-	-	HTTP::EIoT	401	-	-	-	-	-	bro	Notice::ACTION_LOG	3600.000000	F	-	-	-	-	-
1517370002.820199	-	-	-	-	-	-	-	-	-	HTTP::EIoT	GET, /	-	-	-	-	-	bro	Notice::ACTION_LOG	3600.000000	F	-	-	-	-	-
1517370002.829836	-	-	-	-	-	-	-	-	-	HTTP::EIoT	200	-	-	-	-	-	bro	Notice::ACTION_LOG	3600.000000	F	-	-	-	-	-
1517370002.851293	-	-	-	-	-	-	-	-	-	HTTP::EIoT	GET, /	-	-	-	-	-	bro	Notice::ACTION_LOG	3600.000000	F	-	-	-	-	-
1517370002.860116	-	-	-	-	-	-	-	-	-	HTTP::EIoT	401	-	-	-	-	-	bro	Notice::ACTION_LOG	3600.000000	F	-	-	-	-	-
1517370002.870665	-	-	-	-	-	-	-	-	-	HTTP::EIoT	GET, /	-	-	-	-	-	bro	Notice::ACTION_LOG	3600.000000	F	-	-	-	-	-
1517370002.880247	-	-	-	-	-	-	-	-	-	HTTP::EIoT	200	-	-	-	-	-	bro	Notice::ACTION_LOG	3600.000000	F	-	-	-	-	-
1517370002.910988	-	-	-	-	-	-	-	-	-	HTTP::EIoT	GET, /	-	-	-	-	-	bro	Notice::ACTION_LOG	3600.000000	F	-	-	-	-	-
1517370002.920578	-	-	-	-	-	-	-	-	-	HTTP::EIoT	401	-	-	-	-	-	bro	Notice::ACTION_LOG	3600.000000	F	-	-	-	-	-
1517370002.931328	-	-	-	-	-	-	-	-	-	HTTP::EIoT	GET, /	-	-	-	-	-	bro	Notice::ACTION_LOG	3600.000000	F	-	-	-	-	-
1517370002.940775	-	-	-	-	-	-	-	-	-	HTTP::EIoT	200	-	-	-	-	-	bro	Notice::ACTION_LOG	3600.000000	F	-	-	-	-	-
1517370002.971736	-	-	-	-	-	-	-	-	-	HTTP::EIoT	POST, /level/5/exec/	-	-	-	-	-	bro	Notice::ACTION_LOG	3600.000000	F	-	-	-	-	-
1517370003.001794	-	-	-	-	-	-	-	-	-	HTTP::EIoT	GET, /	-	-	-	-	-	bro	Notice::ACTION_LOG	3600.000000	F	-	-	-	-	-
