1517365567.772390	-	-	-	-	-	-	-	-	-	HTTP::EIoT	POST, /level/5/exec/	-	-	-	-	-	bro	Notice::ACTION_LOG	3600.000000	F	-	-	-	-	-
1517365567.833004	-	-	-	-	-	-	-	-	-	HTTP::EIoT	GET, /	-	-	-	-	-	bro	Notice::ACTION_LOG	3600.000000	F	-	-	-	-	-
1517365567.842449	-	-	-	-	-	-	-	-	-	HTTP::EIoT	401	-	-	-	-	-	bro	Notice::ACTION_LOG	3600.000000	F	-	-	-	-	-
1517365567.853053	-	-	-	-	-	-	-	-	-	HTTP::EIoT	GET, /	-	-	-	-	-	bro	Notice::ACTION_LOG	3600.000000	F	-	-	-	-	-
1517365567.862676	-	-	-	-	-	-	-	-	-	HTTP::EIoT	200	-	-	-	-	-	bro	Notice::ACTION_LOG	3600.000000	F	-	-	-	-	-
1517365567.883401	-	-	-	-	-	-	-	-	-	HTTP::EIoT	POST, /level/1/exec/	-	-	-	-	-	bro	Notice::ACTION_LOG	3600.000000	F	-	-	-	-	-
1517365567.913915	-	-	-	-	-	-	-	-	-	HTTP::EIoT	GET, /	-	-	-	-	-	bro	Notice::ACTION_LOG	3600.000000	F	-	-	-	-	-
1517365567.923269	-	-	-	-	-	-	-	-	-	HTTP::EIoT	401	-	-	-	-	-	bro	Notice::ACTION_LOG	3600.000000	F	-	-	-	-	-
1517365567.933898	-	-	-	-	-	-	-	-	-	HTTP::EIoT	GET, /	-	-	-	-	-	bro	Notice::ACTION_LOG	3600.000000	F	-	-	-	-	-
1517365567.943463	-	-	-	-	-	-	-	-	-	HTTP::EIoT	200	-	-	-	-	-	bro	Notice::ACTION_LOG	3600.000000	F	-	-	-	-	-
1517365567.963969	-	-	-	-	-	-	-	-	-	HTTP::EIoT	GET, /	-	-	-	-	-	bro	Notice::ACTION_LOG	3600.000000	F	-	-	-	-	-
1517365569.756015	-	-	-	-	-	-	-	-	-	HTTP::EIoT	401	-	-	-	-	-	bro	Notice::ACTION_LOG	3600.000000	F	-	-	-	-	-
1517365569.766556	-	-	-	-	-	-	-	-	-	HTTP::EIoT	GET, /	-	-	-	-	-	bro	Notice::ACTION_LOG	3600.000000	F	-	-	-	-	-
1517365569.776166	-	-	-	-	-	-	-	-	-	HTTP::EIoT	200	-	-	-	-	-	bro	Notice::ACTION_LOG	3600.000000	F	-	-	-	-	-
1517365569.796998	-	-	-	-	-	-	-	-	-	HTTP::EIoT	GET, /	-	-	-	-	-	bro	Notice::ACTION_LOG	3600.000000	F	-	-	-	-	-
1517365569.806452	-	-	-	-	-	-	-	-	-	HTTP::EIoT	401	-	-	-	-	-	bro	Notice::ACTION_LOG	3600.000000	F	-	-	-	-	-
1517365569.816920	-	-	-	-	-	-	-	-	-	HTTP::EIoT	GET, /	-	-	-	-	-	bro	Notice::ACTION_LOG	3600.000000	F	-	-	-	-	-
1517365569.826663	-	-	-	-	-	-	-	-	-	HTTP::EIoT	200	-	-	-	-	-	bro	Notice::ACTION_LOG	3600.000000	F	-	-	-	-	-
1517365569.847383	-	-	-	-	-	-	-	-	-	HTTP::EIoT	GET, /	-	-	-	-	-	bro	Notice::ACTION_LOG	3600.000000	F	-	-	-	-	-
1517365569.867009	-	-	-	-	-	-	-	-	-	HTTP::EIoT	401	-	-	-	-	-	bro	Notice::ACTION_LOG	3600.000000	F	-	-	-	-	-
1517365569.877697	-	-	-	-	-	-	-	-	-	HTTP::EIoT	GET, /	-	-	-	-	-	bro	Notice::ACTION_LOG	3600.000000	F	-	-	-	-	-
1517365569.887158	-	-	-	-	-	-	-	-	-	HTTP::EIoT	200	-	-	-	-	-	bro	Notice::ACTION_LOG	3600.000000	F	-	-	-	-	-
1517365569.918170	-	-	-	-	-	-	-	-	-	HTTP::EIoT	GET, /	-	-	-	-	-	bro	Notice::ACTION_LOG	3600.000000	F	-	-	-	-	-
1517365569.927479	-	-	-	-	-	-	-	-	-	HTTP::EIoT	401	-	-	-	-	-	bro	Notice::ACTION_LOG	3600.000000	F	-	-	-	-	-
1517365569.938052	-	-	-	-	-	-	-	-	-	HTTP::EIoT	GET, /	-	-	-	-	-	bro	Notice::ACTION_LOG	3600.000000	F	-	-	-	-	-
1517365569.947708	-	-	-	-	-	-	-	-	-	HTTP::EIoT	200	-	-	-	-	-	bro	Notice::ACTION_LOG	3600.000000	F	-	-	-	-	-
1517365569.968497	-	-	-	-	-	-	-	-	-	HTTP::EIoT	POST, /level/6/exec/	-	-	-	-	-	bro	Notice::ACTION_LOG	3600.000000	F	-	-	-	-	-
1517365569.998765	-	-	-	-	-	-	-	-	-	HTTP::EIoT	GET, /	-	-	-	-	-	bro	Notice::ACTION_LOG	3600.000000	F	-	-	-	-	-
1517365571.779590	-	-	-	-	-	-	-	-	-	HTTP::EIoT	401	-	-	-	-	-	bro	Notice::ACTION_LOG	3600.000000	F	-	-	-	-	-
1517365571.790073	-	-	-	-	-	-	-	-	-	HTTP::EIoT	GET, /	-	-	-	-	-	bro	Notice::ACTION_LOG	3600.000000	F	-	-	-	-	-
1517365571.799762	-	-	-	-	-	-	-	-	-	HTTP::EIoT	200	-	-	-	-	-	bro	Notice::ACTION_LOG	3600.000000	F	-	-	-	-	-
1517365571.820567	-	-	-	-	-	-	-	-	-	HTTP::EIoT	POST, /level/1/exec/	-	-	-	-	-	bro	Notice::ACTION_LOG	3600.000000	F	-	-	-	-	-
