#separator \x09
#set_separator	,
#empty_field	(empty)
#unset_field	-
#path	notice
#open	2018-06-11-02-43-15
#fields	ts	uid	id.orig_h	id.orig_p	id.resp_h	id.resp_p	fuid	file_mime_type	file_desc	proto	note	msg	sub	src	dst	p	n	peer_descr	actions	suppress_for	dropped	remote_location.country_code	remote_location.region	remote_location.city	remote_location.latitude	remote_location.longitude
#types	time	string	addr	port	addr	port	string	string	string	enum	enum	string	string	addr	addr	port	count	string	set[enum]	interval	bool	string	string	string	double	double
1523031552.867245	-	-	-	-	-	-	-	-	-	DNS::EIoT	dns_request prod.amcs-tachyon.com	-	-	-	-	-	bro	Notice::ACTION_LOG	3600.000000	F	-	-	-	-	-
1523031558.562044	-	-	-	-	-	-	-	-	-	DNS::EIoT	dns_request android.clients.google.com	-	-	-	-	-	bro	Notice::ACTION_LOG	3600.000000	F	-	-	-	-	-
1523031558.987991	-	-	-	-	-	-	-	-	-	DNS::EIoT	dns_request android.googleapis.com	-	-	-	-	-	bro	Notice::ACTION_LOG	3600.000000	F	-	-	-	-	-
1523031559.092436	-	-	-	-	-	-	-	-	-	DNS::EIoT	dns_request www.google.com	-	-	-	-	-	bro	Notice::ACTION_LOG	3600.000000	F	-	-	-	-	-
1523031559.092459	-	-	-	-	-	-	-	-	-	DNS::EIoT	dns_request www.google.com	-	-	-	-	-	bro	Notice::ACTION_LOG	3600.000000	F	-	-	-	-	-
1523031559.871763	-	-	-	-	-	-	-	-	-	DNS::EIoT	dns_request lh3.googleusercontent.com	-	-	-	-	-	bro	Notice::ACTION_LOG	3600.000000	F	-	-	-	-	-
1523031560.042248	-	-	-	-	-	-	-	-	-	DNS::EIoT	dns_request lh5.ggpht.com	-	-	-	-	-	bro	Notice::ACTION_LOG	3600.000000	F	-	-	-	-	-
1523031560.043947	-	-	-	-	-	-	-	-	-	:DNS::EIoT	dns_request lh4.ggpht.com	-	-	-	-	-	bro	Notice::ACTION_LOG	3600.000000	F	-	-	-	-	-
1523031560.506122	-	-	-	-	-	-	-	-	-	DNS::EIoT	dns_request lh6.googleusercontent.com	-	-	-	-	-	bro	Notice::ACTION_LOG	3600.000000	F	-	-	-	-	-
1523031564.546705	-	-	-	-	-	-	-	-	-	DNS::EIoT	dns_request analytics.localytics.com	-	-	-	-	-	bro	Notice::ACTION_LOG	3600.000000	F	-	-	-	-	-
#close	2018-06-11-02-43-15
